^C:\USERS\DANKM\ONEDRIVE\DESKTOP\SCHOOL\SEMESTER 2\C++\WK3\SLNCARDGAME\PRJCARDGAME\DEBUG\MAIN.OBJ
/OUT:"C:\USERS\DANKM\ONEDRIVE\DESKTOP\SCHOOL\SEMESTER 2\C++\WK3\SLNCARDGAME\DEBUG\PRJCARDGAME.EXE" /INCREMENTAL /ILK:"DEBUG\PRJCARDGAME.ILK" /NOLOGO KERNEL32.LIB USER32.LIB GDI32.LIB WINSPOOL.LIB COMDLG32.LIB ADVAPI32.LIB SHELL32.LIB OLE32.LIB OLEAUT32.LIB UUID.LIB ODBC32.LIB ODBCCP32.LIB /MANIFEST /MANIFESTUAC:"level='asInvoker' uiAccess='false'" /manifest:embed /DEBUG /PDB:"C:\USERS\DANKM\ONEDRIVE\DESKTOP\SCHOOL\SEMESTER 2\C++\WK3\SLNCARDGAME\DEBUG\PRJCARDGAME.PDB" /SUBSYSTEM:CONSOLE /TLBID:1 /DYNAMICBASE /NXCOMPAT /IMPLIB:"C:\USERS\DANKM\ONEDRIVE\DESKTOP\SCHOOL\SEMESTER 2\C++\WK3\SLNCARDGAME\DEBUG\PRJCARDGAME.LIB" /MACHINE:X86 DEBUG\MAIN.OBJ
^D:\SCHOOL PROJECTS\C++ REPOS\JLF.PLAYINGCARDS.FORKED\PRJCARDGAME\DEBUG\MAIN.OBJ
/OUT:"D:\SCHOOL PROJECTS\C++ REPOS\JLF.PLAYINGCARDS.FORKED\DEBUG\PRJCARDGAME.EXE" /INCREMENTAL /ILK:"DEBUG\PRJCARDGAME.ILK" /NOLOGO KERNEL32.LIB USER32.LIB GDI32.LIB WINSPOOL.LIB COMDLG32.LIB ADVAPI32.LIB SHELL32.LIB OLE32.LIB OLEAUT32.LIB UUID.LIB ODBC32.LIB ODBCCP32.LIB /MANIFEST /MANIFESTUAC:"level='asInvoker' uiAccess='false'" /manifest:embed /DEBUG /PDB:"D:\SCHOOL PROJECTS\C++ REPOS\JLF.PLAYINGCARDS.FORKED\DEBUG\PRJCARDGAME.PDB" /SUBSYSTEM:CONSOLE /TLBID:1 /DYNAMICBASE /NXCOMPAT /IMPLIB:"D:\SCHOOL PROJECTS\C++ REPOS\JLF.PLAYINGCARDS.FORKED\DEBUG\PRJCARDGAME.LIB" /MACHINE:X86 DEBUG\MAIN.OBJ
